2024-01-21 22:14:09.920 +04:00 [INF] Migrating database associated with context CrocuSoftCRMDbContext
2024-01-21 22:14:10.161 +04:00 [ERR] An error occurred while migrating the database used on context CrocuSoftCRMDbContext
System.AggregateException: One or more errors occurred. (Object reference not set to an instance of an object.)
 ---> System.NullReferenceException: Object reference not set to an instance of an object.
   at CrocuSoftCRM.Extensions.WebHostExtensions.<>c__DisplayClass0_1`1.<<MigrateDbContext>b__0>d.MoveNext() in C:\Users\DELL\Desktop\CrocusoftCRM_Project\CrocusoftCRM\CrocuSoftCRM\Extensions\WebHostExtensions.cs:line 38
--- End of stack trace from previous location ---
   at Polly.AsyncPolicy.<>c__DisplayClass40_0.<<ImplementationAsync>b__0>d.MoveNext()
--- End of stack trace from previous location ---
   at Polly.Retry.AsyncRetryEngine.ImplementationAsync[TResult](Func`3 action, Context context, CancellationToken cancellationToken, ExceptionPredicates shouldRetryExceptionPredicates, ResultPredicates`1 shouldRetryResultPredicates, Func`5 onRetryAsync, Int32 permittedRetryCount, IEnumerable`1 sleepDurationsEnumerable, Func`4 sleepDurationProvider, Boolean continueOnCapturedContext)
   at Polly.AsyncPolicy.ExecuteAsync(Func`3 action, Context context, CancellationToken cancellationToken, Boolean continueOnCapturedContext)
   --- End of inner exception stack trace ---
   at System.Threading.Tasks.Task.ThrowIfExceptional(Boolean includeTaskCanceledExceptions)
   at System.Threading.Tasks.Task.Wait(Int32 millisecondsTimeout, CancellationToken cancellationToken)
   at System.Threading.Tasks.Task.Wait()
   at CrocuSoftCRM.Extensions.WebHostExtensions.MigrateDbContext[TContext](IWebHost webHost, Func`3 seed) in C:\Users\DELL\Desktop\CrocusoftCRM_Project\CrocusoftCRM\CrocuSoftCRM\Extensions\WebHostExtensions.cs:line 32
2024-01-21 22:14:10.383 +04:00 [INF] User profile is available. Using 'C:\Users\DELL\AppData\Local\ASP.NET\DataProtection-Keys' as key repository and Windows DPAPI to encrypt keys at rest.
2024-01-21 22:14:12.842 +04:00 [INF] Request starting HTTP/2 GET https://localhost:7045/swagger/index.html - -
2024-01-21 22:14:13.350 +04:00 [INF] Request starting HTTP/2 GET https://localhost:7045/_framework/aspnetcore-browser-refresh.js - -
2024-01-21 22:14:13.353 +04:00 [INF] Request finished HTTP/2 GET https://localhost:7045/swagger/index.html - - - 200 - text/html;charset=utf-8 518.0028ms
2024-01-21 22:14:13.355 +04:00 [INF] Request finished HTTP/2 GET https://localhost:7045/_framework/aspnetcore-browser-refresh.js - - - 200 12356 application/javascript;+charset=utf-8 4.7305ms
2024-01-21 22:14:13.380 +04:00 [INF] Request starting HTTP/2 GET https://localhost:7045/_vs/browserLink - -
2024-01-21 22:14:13.429 +04:00 [INF] Request finished HTTP/2 GET https://localhost:7045/_vs/browserLink - - - 200 - text/javascript;+charset=UTF-8 49.4095ms
2024-01-21 22:14:13.687 +04:00 [INF] Request starting HTTP/2 GET https://localhost:7045/swagger/v1/swagger.json - -
2024-01-21 22:14:13.729 +04:00 [INF] Request finished HTTP/2 GET https://localhost:7045/swagger/v1/swagger.json - - - 200 - application/json;charset=utf-8 42.8353ms
