2024-01-19 16:02:38.495 +04:00 [INF] Migrating database associated with context CrocuSoftCRMDbContext
2024-01-19 16:02:38.573 +04:00 [ERR] An error occurred while migrating the database used on context CrocuSoftCRMDbContext
System.AggregateException: One or more errors occurred. (Object reference not set to an instance of an object.)
 ---> System.NullReferenceException: Object reference not set to an instance of an object.
   at CrocuSoftCRM.Extensions.WebHostExtensions.<>c__DisplayClass0_1`1.<<MigrateDbContext>b__0>d.MoveNext() in C:\Users\DELL\Desktop\CrocusoftCRM_Project\CrocusoftCRM\CrocuSoftCRM\Extensions\WebHostExtensions.cs:line 38
--- End of stack trace from previous location ---
   at Polly.AsyncPolicy.<>c__DisplayClass40_0.<<ImplementationAsync>b__0>d.MoveNext()
--- End of stack trace from previous location ---
   at Polly.Retry.AsyncRetryEngine.ImplementationAsync[TResult](Func`3 action, Context context, CancellationToken cancellationToken, ExceptionPredicates shouldRetryExceptionPredicates, ResultPredicates`1 shouldRetryResultPredicates, Func`5 onRetryAsync, Int32 permittedRetryCount, IEnumerable`1 sleepDurationsEnumerable, Func`4 sleepDurationProvider, Boolean continueOnCapturedContext)
   at Polly.AsyncPolicy.ExecuteAsync(Func`3 action, Context context, CancellationToken cancellationToken, Boolean continueOnCapturedContext)
   --- End of inner exception stack trace ---
   at System.Threading.Tasks.Task.ThrowIfExceptional(Boolean includeTaskCanceledExceptions)
   at System.Threading.Tasks.Task.Wait(Int32 millisecondsTimeout, CancellationToken cancellationToken)
   at System.Threading.Tasks.Task.Wait()
   at CrocuSoftCRM.Extensions.WebHostExtensions.MigrateDbContext[TContext](IWebHost webHost, Func`3 seed) in C:\Users\DELL\Desktop\CrocusoftCRM_Project\CrocusoftCRM\CrocuSoftCRM\Extensions\WebHostExtensions.cs:line 32
2024-01-19 16:02:38.888 +04:00 [INF] User profile is available. Using 'C:\Users\DELL\AppData\Local\ASP.NET\DataProtection-Keys' as key repository and Windows DPAPI to encrypt keys at rest.
2024-01-19 16:02:40.011 +04:00 [INF] Request starting HTTP/2 GET https://localhost:7045/swagger - -
2024-01-19 16:02:40.080 +04:00 [ERR] An unhandled exception has occurred while executing the request.
System.ArgumentNullException: String reference not set to an instance of a String. (Parameter 's')
   at System.Text.Encoding.GetBytes(String s)
   at System.Text.UTF8Encoding.UTF8EncodingSealed.GetBytes(String s)
   at CrocuSoftCRM.Startup.<>c__DisplayClass11_0.<ConfigureJwtAuthentication>b__1(JwtBearerOptions cfg) in C:\Users\DELL\Desktop\CrocusoftCRM_Project\CrocusoftCRM\CrocuSoftCRM\Startup.cs:line 202
   at Microsoft.Extensions.Options.ConfigureNamedOptions`1.Configure(String name, TOptions options)
   at Microsoft.Extensions.Options.OptionsFactory`1.Create(String name)
   at Microsoft.Extensions.Options.OptionsMonitor`1.<>c__DisplayClass10_0.<Get>b__0()
   at System.Lazy`1.ViaFactory(LazyThreadSafetyMode mode)
   at System.Lazy`1.ExecutionAndPublication(LazyHelper executionAndPublication, Boolean useDefaultConstructor)
   at System.Lazy`1.CreateValue()
   at System.Lazy`1.get_Value()
   at Microsoft.Extensions.Options.OptionsCache`1.GetOrAdd(String name, Func`1 createOptions)
   at Microsoft.Extensions.Options.OptionsMonitor`1.Get(String name)
   at Microsoft.AspNetCore.Authentication.AuthenticationHandler`1.InitializeAsync(AuthenticationScheme scheme, HttpContext context)
   at Microsoft.AspNetCore.Authentication.AuthenticationHandlerProvider.GetHandlerAsync(HttpContext context, String authenticationScheme)
   at Microsoft.AspNetCore.Authentication.AuthenticationService.AuthenticateAsync(HttpContext context, String scheme)
   at Microsoft.AspNetCore.Authentication.AuthenticationMiddleware.Invoke(HttpContext context)
   at Microsoft.AspNetCore.Diagnostics.DeveloperExceptionPageMiddleware.Invoke(HttpContext context)
2024-01-19 16:02:40.298 +04:00 [INF] Request finished HTTP/2 GET https://localhost:7045/swagger - - - 500 - text/html;+charset=utf-8 292.2475ms
2024-01-19 16:02:40.319 +04:00 [INF] Request starting HTTP/2 GET https://localhost:7045/_vs/browserLink - -
2024-01-19 16:02:40.319 +04:00 [INF] Request starting HTTP/2 GET https://localhost:7045/_framework/aspnetcore-browser-refresh.js - -
2024-01-19 16:02:40.325 +04:00 [INF] Request finished HTTP/2 GET https://localhost:7045/_framework/aspnetcore-browser-refresh.js - - - 200 12356 application/javascript;+charset=utf-8 5.7371ms
2024-01-19 16:02:40.439 +04:00 [INF] Request finished HTTP/2 GET https://localhost:7045/_vs/browserLink - - - 200 - text/javascript;+charset=UTF-8 119.9002ms
2024-01-19 16:02:40.485 +04:00 [INF] Request starting HTTP/2 GET https://localhost:7045/favicon.ico - -
2024-01-19 16:02:40.486 +04:00 [ERR] An unhandled exception has occurred while executing the request.
System.ArgumentNullException: String reference not set to an instance of a String. (Parameter 's')
   at System.Text.Encoding.GetBytes(String s)
   at System.Text.UTF8Encoding.UTF8EncodingSealed.GetBytes(String s)
   at CrocuSoftCRM.Startup.<>c__DisplayClass11_0.<ConfigureJwtAuthentication>b__1(JwtBearerOptions cfg) in C:\Users\DELL\Desktop\CrocusoftCRM_Project\CrocusoftCRM\CrocuSoftCRM\Startup.cs:line 202
   at Microsoft.Extensions.Options.ConfigureNamedOptions`1.Configure(String name, TOptions options)
   at Microsoft.Extensions.Options.OptionsFactory`1.Create(String name)
   at Microsoft.Extensions.Options.OptionsMonitor`1.<>c__DisplayClass10_0.<Get>b__0()
   at System.Lazy`1.ViaFactory(LazyThreadSafetyMode mode)
--- End of stack trace from previous location ---
   at System.Lazy`1.CreateValue()
   at System.Lazy`1.get_Value()
   at Microsoft.Extensions.Options.OptionsCache`1.GetOrAdd(String name, Func`1 createOptions)
   at Microsoft.Extensions.Options.OptionsMonitor`1.Get(String name)
   at Microsoft.AspNetCore.Authentication.AuthenticationHandler`1.InitializeAsync(AuthenticationScheme scheme, HttpContext context)
   at Microsoft.AspNetCore.Authentication.AuthenticationHandlerProvider.GetHandlerAsync(HttpContext context, String authenticationScheme)
   at Microsoft.AspNetCore.Authentication.AuthenticationService.AuthenticateAsync(HttpContext context, String scheme)
   at Microsoft.AspNetCore.Authentication.AuthenticationMiddleware.Invoke(HttpContext context)
   at Microsoft.AspNetCore.Diagnostics.DeveloperExceptionPageMiddleware.Invoke(HttpContext context)
2024-01-19 16:02:40.491 +04:00 [INF] Request finished HTTP/2 GET https://localhost:7045/favicon.ico - - - 500 - text/plain;+charset=utf-8 6.4035ms
2024-01-19 16:03:45.330 +04:00 [INF] Migrating database associated with context CrocuSoftCRMDbContext
2024-01-19 16:03:45.424 +04:00 [ERR] An error occurred while migrating the database used on context CrocuSoftCRMDbContext
System.AggregateException: One or more errors occurred. (Object reference not set to an instance of an object.)
 ---> System.NullReferenceException: Object reference not set to an instance of an object.
   at CrocuSoftCRM.Extensions.WebHostExtensions.<>c__DisplayClass0_1`1.<<MigrateDbContext>b__0>d.MoveNext() in C:\Users\DELL\Desktop\CrocusoftCRM_Project\CrocusoftCRM\CrocuSoftCRM\Extensions\WebHostExtensions.cs:line 38
--- End of stack trace from previous location ---
   at Polly.AsyncPolicy.<>c__DisplayClass40_0.<<ImplementationAsync>b__0>d.MoveNext()
--- End of stack trace from previous location ---
   at Polly.Retry.AsyncRetryEngine.ImplementationAsync[TResult](Func`3 action, Context context, CancellationToken cancellationToken, ExceptionPredicates shouldRetryExceptionPredicates, ResultPredicates`1 shouldRetryResultPredicates, Func`5 onRetryAsync, Int32 permittedRetryCount, IEnumerable`1 sleepDurationsEnumerable, Func`4 sleepDurationProvider, Boolean continueOnCapturedContext)
   at Polly.AsyncPolicy.ExecuteAsync(Func`3 action, Context context, CancellationToken cancellationToken, Boolean continueOnCapturedContext)
   --- End of inner exception stack trace ---
   at System.Threading.Tasks.Task.ThrowIfExceptional(Boolean includeTaskCanceledExceptions)
   at System.Threading.Tasks.Task.Wait(Int32 millisecondsTimeout, CancellationToken cancellationToken)
   at System.Threading.Tasks.Task.Wait()
   at CrocuSoftCRM.Extensions.WebHostExtensions.MigrateDbContext[TContext](IWebHost webHost, Func`3 seed) in C:\Users\DELL\Desktop\CrocusoftCRM_Project\CrocusoftCRM\CrocuSoftCRM\Extensions\WebHostExtensions.cs:line 32
2024-01-19 16:03:45.683 +04:00 [INF] User profile is available. Using 'C:\Users\DELL\AppData\Local\ASP.NET\DataProtection-Keys' as key repository and Windows DPAPI to encrypt keys at rest.
2024-01-19 16:03:46.326 +04:00 [INF] Request starting HTTP/2 GET https://localhost:7045/swagger - -
2024-01-19 16:03:46.467 +04:00 [INF] Request starting HTTP/2 GET https://localhost:7045/swagger/index.html - -
2024-01-19 16:03:46.467 +04:00 [INF] Request finished HTTP/2 GET https://localhost:7045/swagger - - - 301 0 - 146.3913ms
2024-01-19 16:03:46.655 +04:00 [INF] Request finished HTTP/2 GET https://localhost:7045/swagger/index.html - - - 200 - text/html;charset=utf-8 188.2973ms
2024-01-19 16:03:46.662 +04:00 [INF] Request starting HTTP/2 GET https://localhost:7045/swagger/swagger-ui.css - -
2024-01-19 16:03:46.662 +04:00 [INF] Request starting HTTP/2 GET https://localhost:7045/swagger/swagger-ui-bundle.js - -
2024-01-19 16:03:46.662 +04:00 [INF] Request starting HTTP/2 GET https://localhost:7045/swagger/swagger-ui-standalone-preset.js - -
2024-01-19 16:03:46.662 +04:00 [INF] Request starting HTTP/2 GET https://localhost:7045/_framework/aspnetcore-browser-refresh.js - -
2024-01-19 16:03:46.662 +04:00 [INF] Request starting HTTP/2 GET https://localhost:7045/_vs/browserLink - -
2024-01-19 16:03:46.667 +04:00 [INF] Request finished HTTP/2 GET https://localhost:7045/_framework/aspnetcore-browser-refresh.js - - - 200 12356 application/javascript;+charset=utf-8 5.0539ms
2024-01-19 16:03:46.692 +04:00 [INF] Request finished HTTP/2 GET https://localhost:7045/_vs/browserLink - - - 200 - text/javascript;+charset=UTF-8 29.9313ms
2024-01-19 16:03:46.700 +04:00 [INF] Sending file. Request path: '/swagger-ui-standalone-preset.js'. Physical path: 'N/A'
2024-01-19 16:03:46.700 +04:00 [INF] Sending file. Request path: '/swagger-ui-bundle.js'. Physical path: 'N/A'
2024-01-19 16:03:46.700 +04:00 [INF] Sending file. Request path: '/swagger-ui.css'. Physical path: 'N/A'
2024-01-19 16:03:46.700 +04:00 [INF] Request finished HTTP/2 GET https://localhost:7045/swagger/swagger-ui-bundle.js - - - 200 1061536 application/javascript 38.3166ms
2024-01-19 16:03:46.700 +04:00 [INF] Request finished HTTP/2 GET https://localhost:7045/swagger/swagger-ui.css - - - 200 144929 text/css 38.5643ms
2024-01-19 16:03:46.700 +04:00 [INF] Request finished HTTP/2 GET https://localhost:7045/swagger/swagger-ui-standalone-preset.js - - - 200 312163 application/javascript 38.2116ms
2024-01-19 16:03:47.092 +04:00 [INF] Request starting HTTP/2 GET https://localhost:7045/swagger/v1/swagger.json - -
2024-01-19 16:03:47.118 +04:00 [INF] Request starting HTTP/2 GET https://localhost:7045/swagger/favicon-32x32.png - -
2024-01-19 16:03:47.120 +04:00 [INF] Sending file. Request path: '/favicon-32x32.png'. Physical path: 'N/A'
2024-01-19 16:03:47.120 +04:00 [INF] Request finished HTTP/2 GET https://localhost:7045/swagger/favicon-32x32.png - - - 200 628 image/png 1.8056ms
2024-01-19 16:03:47.139 +04:00 [INF] Request finished HTTP/2 GET https://localhost:7045/swagger/v1/swagger.json - - - 200 - application/json;charset=utf-8 46.9649ms
2024-01-19 16:06:01.197 +04:00 [INF] Migrating database associated with context CrocuSoftCRMDbContext
2024-01-19 16:06:01.298 +04:00 [ERR] An error occurred while migrating the database used on context CrocuSoftCRMDbContext
System.AggregateException: One or more errors occurred. (Object reference not set to an instance of an object.)
 ---> System.NullReferenceException: Object reference not set to an instance of an object.
   at CrocuSoftCRM.Extensions.WebHostExtensions.<>c__DisplayClass0_1`1.<<MigrateDbContext>b__0>d.MoveNext() in C:\Users\DELL\Desktop\CrocusoftCRM_Project\CrocusoftCRM\CrocuSoftCRM\Extensions\WebHostExtensions.cs:line 38
--- End of stack trace from previous location ---
   at Polly.AsyncPolicy.<>c__DisplayClass40_0.<<ImplementationAsync>b__0>d.MoveNext()
--- End of stack trace from previous location ---
   at Polly.Retry.AsyncRetryEngine.ImplementationAsync[TResult](Func`3 action, Context context, CancellationToken cancellationToken, ExceptionPredicates shouldRetryExceptionPredicates, ResultPredicates`1 shouldRetryResultPredicates, Func`5 onRetryAsync, Int32 permittedRetryCount, IEnumerable`1 sleepDurationsEnumerable, Func`4 sleepDurationProvider, Boolean continueOnCapturedContext)
   at Polly.AsyncPolicy.ExecuteAsync(Func`3 action, Context context, CancellationToken cancellationToken, Boolean continueOnCapturedContext)
   --- End of inner exception stack trace ---
   at System.Threading.Tasks.Task.ThrowIfExceptional(Boolean includeTaskCanceledExceptions)
   at System.Threading.Tasks.Task.Wait(Int32 millisecondsTimeout, CancellationToken cancellationToken)
   at System.Threading.Tasks.Task.Wait()
   at CrocuSoftCRM.Extensions.WebHostExtensions.MigrateDbContext[TContext](IWebHost webHost, Func`3 seed) in C:\Users\DELL\Desktop\CrocusoftCRM_Project\CrocusoftCRM\CrocuSoftCRM\Extensions\WebHostExtensions.cs:line 32
2024-01-19 16:06:01.589 +04:00 [INF] User profile is available. Using 'C:\Users\DELL\AppData\Local\ASP.NET\DataProtection-Keys' as key repository and Windows DPAPI to encrypt keys at rest.
2024-01-19 16:06:02.698 +04:00 [INF] Request starting HTTP/2 GET https://localhost:7045/swagger/index.html - -
2024-01-19 16:06:03.046 +04:00 [INF] Request starting HTTP/2 GET https://localhost:7045/_vs/browserLink - -
2024-01-19 16:06:03.046 +04:00 [INF] Request starting HTTP/2 GET https://localhost:7045/_framework/aspnetcore-browser-refresh.js - -
2024-01-19 16:06:03.050 +04:00 [INF] Request finished HTTP/2 GET https://localhost:7045/swagger/index.html - - - 200 - text/html;charset=utf-8 356.8141ms
2024-01-19 16:06:03.051 +04:00 [INF] Request finished HTTP/2 GET https://localhost:7045/_framework/aspnetcore-browser-refresh.js - - - 200 12356 application/javascript;+charset=utf-8 5.3868ms
2024-01-19 16:06:03.064 +04:00 [INF] Request finished HTTP/2 GET https://localhost:7045/_vs/browserLink - - - 200 - text/javascript;+charset=UTF-8 18.2545ms
2024-01-19 16:06:03.229 +04:00 [INF] Request starting HTTP/2 GET https://localhost:7045/swagger/v1/swagger.json - -
2024-01-19 16:06:03.271 +04:00 [INF] Request finished HTTP/2 GET https://localhost:7045/swagger/v1/swagger.json - - - 200 - application/json;charset=utf-8 41.8610ms
2024-01-19 16:06:29.265 +04:00 [INF] Migrating database associated with context CrocuSoftCRMDbContext
2024-01-19 16:06:29.356 +04:00 [ERR] An error occurred while migrating the database used on context CrocuSoftCRMDbContext
System.AggregateException: One or more errors occurred. (Object reference not set to an instance of an object.)
 ---> System.NullReferenceException: Object reference not set to an instance of an object.
   at CrocuSoftCRM.Extensions.WebHostExtensions.<>c__DisplayClass0_1`1.<<MigrateDbContext>b__0>d.MoveNext() in C:\Users\DELL\Desktop\CrocusoftCRM_Project\CrocusoftCRM\CrocuSoftCRM\Extensions\WebHostExtensions.cs:line 38
--- End of stack trace from previous location ---
   at Polly.AsyncPolicy.<>c__DisplayClass40_0.<<ImplementationAsync>b__0>d.MoveNext()
--- End of stack trace from previous location ---
   at Polly.Retry.AsyncRetryEngine.ImplementationAsync[TResult](Func`3 action, Context context, CancellationToken cancellationToken, ExceptionPredicates shouldRetryExceptionPredicates, ResultPredicates`1 shouldRetryResultPredicates, Func`5 onRetryAsync, Int32 permittedRetryCount, IEnumerable`1 sleepDurationsEnumerable, Func`4 sleepDurationProvider, Boolean continueOnCapturedContext)
   at Polly.AsyncPolicy.ExecuteAsync(Func`3 action, Context context, CancellationToken cancellationToken, Boolean continueOnCapturedContext)
   --- End of inner exception stack trace ---
   at System.Threading.Tasks.Task.ThrowIfExceptional(Boolean includeTaskCanceledExceptions)
   at System.Threading.Tasks.Task.Wait(Int32 millisecondsTimeout, CancellationToken cancellationToken)
   at System.Threading.Tasks.Task.Wait()
   at CrocuSoftCRM.Extensions.WebHostExtensions.MigrateDbContext[TContext](IWebHost webHost, Func`3 seed) in C:\Users\DELL\Desktop\CrocusoftCRM_Project\CrocusoftCRM\CrocuSoftCRM\Extensions\WebHostExtensions.cs:line 32
2024-01-19 16:06:29.609 +04:00 [INF] User profile is available. Using 'C:\Users\DELL\AppData\Local\ASP.NET\DataProtection-Keys' as key repository and Windows DPAPI to encrypt keys at rest.
2024-01-19 16:06:48.972 +04:00 [INF] Request starting HTTP/2 GET https://localhost:7045/swagger/index.html - -
2024-01-19 16:06:49.355 +04:00 [INF] Request starting HTTP/2 GET https://localhost:7045/_framework/aspnetcore-browser-refresh.js - -
2024-01-19 16:06:49.355 +04:00 [INF] Request finished HTTP/2 GET https://localhost:7045/swagger/index.html - - - 200 - text/html;charset=utf-8 387.6749ms
2024-01-19 16:06:49.362 +04:00 [INF] Request finished HTTP/2 GET https://localhost:7045/_framework/aspnetcore-browser-refresh.js - - - 200 12356 application/javascript;+charset=utf-8 6.9645ms
2024-01-19 16:06:49.397 +04:00 [INF] Request starting HTTP/2 GET https://localhost:7045/_vs/browserLink - -
2024-01-19 16:06:49.417 +04:00 [INF] Request finished HTTP/2 GET https://localhost:7045/_vs/browserLink - - - 200 - text/javascript;+charset=UTF-8 19.8872ms
2024-01-19 16:06:49.557 +04:00 [INF] Request starting HTTP/2 GET https://localhost:7045/swagger/v1/swagger.json - -
2024-01-19 16:06:49.601 +04:00 [INF] Request finished HTTP/2 GET https://localhost:7045/swagger/v1/swagger.json - - - 200 - application/json;charset=utf-8 44.2853ms
